<svg width="25" height="24" viewBox="0 0 25 24" fill="none" xmlns="http://www.w3.org/2000/svg">
<path d="M12.5 22C9.84711 22.0024 7.30218 20.9496 5.4263 19.0737C3.55042 17.1978 2.49762 14.6529 2.5 12V11.8C2.58179 7.79223 5.0478 4.22016 8.76637 2.72307C12.4849 1.22597 16.7381 2.0929 19.574 4.92601C22.4365 7.78609 23.2932 12.0893 21.7443 15.8276C20.1955 19.5659 16.5465 22.0024 12.5 22ZM12.5 13.41L15.09 16L16.5 14.59L13.91 12L16.5 9.41001L15.09 8.00001L12.5 10.59L9.91001 8.00001L8.50001 9.41001L11.09 12L8.50001 14.59L9.91001 16L12.5 13.411V13.41Z" fill="#D64230"/>
</svg>
