<svg width="25" height="25" viewBox="0 0 25 25" fill="none" xmlns="http://www.w3.org/2000/svg">
<rect opacity="0.1" width="25" height="25" fill="#2352CA"/>
<path d="M9.01929 14.4105L8.18 18H17.3764L18 15.3218H12.4843L13.09 12.7095L14.1093 12.2812L14.595 10.2188L13.5879 10.647L14.6729 6H11.0093L9.52286 12.3218L8.49143 12.7568L8 14.826L9.01929 14.4105Z" fill="#2E73C5"/>
</svg>
